Datos
…
Resumen de la data:

data %>%
  pivot_longer(-equipoID, names_to= "detail", values_to = "values")%>%
  group_by(detail)%>%
  summarize(Promedio = mean(values), Mediana = median(values), Max = max(values), Min = min(values))%>%
  as_tibble()

## # A tibble: 24 x 5
##    detail         Promedio Mediana   Max   Min
##    <chr>             <dbl>   <dbl> <dbl> <dbl>
##  1 efficacy1          4.32    4.33  5     3.33
##  2 efficacy2          4.35    4.4   5     3   
##  3 efficacy3          4.07    4     4.67  3.2 
##  4 learnbehavior1     3.41    3.33  4.67  2   
##  5 learnbehavior2     2.57    2.71  3.6   1.25
##  6 learnbehavior3     3.19    3.26  4.5   2.17
##  7 learnbehavior4     3.65    3.67  4.67  2.5 
##  8 learnbehavior5     3.45    3.4   4.4   2   
##  9 learnbehavior6     3.71    3.78  4.83  2   
## 10 learnbehavior7     2.25    2.1   4     1   
## # ... with 14 more rows

Y podemos visualizar las estadisticas principales:

data %>%
  pivot_longer(-equipoID, names_to= "detail", values_to = "values")%>%
  group_by(detail)%>%
  summarize(Promedio = mean(values), Mediana = median(values), Max = max(values), Min = min(values))%>%
  mutate(level = case_when( grepl("eff", detail) ~ 1,
                            grepl("lea", detail) ~ 2,
                            grepl("per", detail) ~ 3,
                            grepl("psy", detail) ~ 4,
                            grepl("tea", detail) ~ 5))

## # A tibble: 24 x 6
##    detail         Promedio Mediana   Max   Min level
##    <chr>             <dbl>   <dbl> <dbl> <dbl> <dbl>
##  1 efficacy1          4.32    4.33  5     3.33     1
##  2 efficacy2          4.35    4.4   5     3        1
##  3 efficacy3          4.07    4     4.67  3.2      1
##  4 learnbehavior1     3.41    3.33  4.67  2        2
##  5 learnbehavior2     2.57    2.71  3.6   1.25     2
##  6 learnbehavior3     3.19    3.26  4.5   2.17     2
##  7 learnbehavior4     3.65    3.67  4.67  2.5      2
##  8 learnbehavior5     3.45    3.4   4.4   2        2
##  9 learnbehavior6     3.71    3.78  4.83  2        2
## 10 learnbehavior7     2.25    2.1   4     1        2
## # ... with 14 more rows
…
